C:/TCCA/STM32Cube_FW_F7_V1.5.0/Projects/STM32F769I-Discovery/Applications/USB_Device/MSC_Standalone/Src/usbd_storage.c:103:8:STORAGE_Init	16	static
C:/TCCA/STM32Cube_FW_F7_V1.5.0/Projects/STM32F769I-Discovery/Applications/USB_Device/MSC_Standalone/Src/usbd_storage.c:116:8:STORAGE_GetCapacity	120	static
C:/TCCA/STM32Cube_FW_F7_V1.5.0/Projects/STM32F769I-Discovery/Applications/USB_Device/MSC_Standalone/Src/usbd_storage.c:137:8:STORAGE_IsReady	24	static
C:/TCCA/STM32Cube_FW_F7_V1.5.0/Projects/STM32F769I-Discovery/Applications/USB_Device/MSC_Standalone/Src/usbd_storage.c:167:8:STORAGE_IsWriteProtected	16	static
C:/TCCA/STM32Cube_FW_F7_V1.5.0/Projects/STM32F769I-Discovery/Applications/USB_Device/MSC_Standalone/Src/usbd_storage.c:179:8:STORAGE_Read	48	static
C:/TCCA/STM32Cube_FW_F7_V1.5.0/Projects/STM32F769I-Discovery/Applications/USB_Device/MSC_Standalone/Src/usbd_storage.c:198:8:STORAGE_Write	48	static
C:/TCCA/STM32Cube_FW_F7_V1.5.0/Projects/STM32F769I-Discovery/Applications/USB_Device/MSC_Standalone/Src/usbd_storage.c:215:8:STORAGE_GetMaxLun	4	static
