C:/TCCA/STM32Cube_FW_F7_V1.5.0/Drivers/STM32F7xx_HAL_Driver/Src/stm32f7xx_hal_gpio.c:187:6:HAL_GPIO_Init	40	static
C:/TCCA/STM32Cube_FW_F7_V1.5.0/Drivers/STM32F7xx_HAL_Driver/Src/stm32f7xx_hal_gpio.c:312:6:HAL_GPIO_DeInit	32	static
C:/TCCA/STM32Cube_FW_F7_V1.5.0/Drivers/STM32F7xx_HAL_Driver/Src/stm32f7xx_hal_gpio.c:392:15:HAL_GPIO_ReadPin	24	static
C:/TCCA/STM32Cube_FW_F7_V1.5.0/Drivers/STM32F7xx_HAL_Driver/Src/stm32f7xx_hal_gpio.c:426:6:HAL_GPIO_WritePin	16	static
C:/TCCA/STM32Cube_FW_F7_V1.5.0/Drivers/STM32F7xx_HAL_Driver/Src/stm32f7xx_hal_gpio.c:448:6:HAL_GPIO_TogglePin	16	static
C:/TCCA/STM32Cube_FW_F7_V1.5.0/Drivers/STM32F7xx_HAL_Driver/Src/stm32f7xx_hal_gpio.c:467:19:HAL_GPIO_LockPin	24	static
C:/TCCA/STM32Cube_FW_F7_V1.5.0/Drivers/STM32F7xx_HAL_Driver/Src/stm32f7xx_hal_gpio.c:500:6:HAL_GPIO_EXTI_IRQHandler	16	static
C:/TCCA/STM32Cube_FW_F7_V1.5.0/Drivers/STM32F7xx_HAL_Driver/Src/stm32f7xx_hal_gpio.c:515:13:HAL_GPIO_EXTI_Callback	16	static
