C:/TCCA/STM32Cube_FW_F7_V1.5.0/Drivers/STM32F7xx_HAL_Driver/Src/stm32f7xx_hal_flash_ex.c:169:19:HAL_FLASHEx_Erase	24	static
C:/TCCA/STM32Cube_FW_F7_V1.5.0/Drivers/STM32F7xx_HAL_Driver/Src/stm32f7xx_hal_flash_ex.c:242:19:HAL_FLASHEx_Erase_IT	24	static
C:/TCCA/STM32Cube_FW_F7_V1.5.0/Drivers/STM32F7xx_HAL_Driver/Src/stm32f7xx_hal_flash_ex.c:298:19:HAL_FLASHEx_OBProgram	56	static
C:/TCCA/STM32Cube_FW_F7_V1.5.0/Drivers/STM32F7xx_HAL_Driver/Src/stm32f7xx_hal_flash_ex.c:383:6:HAL_FLASHEx_OBGetConfig	16	static
C:/TCCA/STM32Cube_FW_F7_V1.5.0/Drivers/STM32F7xx_HAL_Driver/Src/stm32f7xx_hal_flash_ex.c:431:13:FLASH_MassErase	16	static,ignoring_inline_asm
C:/TCCA/STM32Cube_FW_F7_V1.5.0/Drivers/STM32F7xx_HAL_Driver/Src/stm32f7xx_hal_flash_ex.c:477:6:FLASH_Erase_Sector	32	static,ignoring_inline_asm
C:/TCCA/STM32Cube_FW_F7_V1.5.0/Drivers/STM32F7xx_HAL_Driver/Src/stm32f7xx_hal_flash_ex.c:524:17:FLASH_OB_GetWRP	4	static
C:/TCCA/STM32Cube_FW_F7_V1.5.0/Drivers/STM32F7xx_HAL_Driver/Src/stm32f7xx_hal_flash_ex.c:567:26:FLASH_OB_UserConfig	40	static
C:/TCCA/STM32Cube_FW_F7_V1.5.0/Drivers/STM32F7xx_HAL_Driver/Src/stm32f7xx_hal_flash_ex.c:608:17:FLASH_OB_GetUser	4	static
C:/TCCA/STM32Cube_FW_F7_V1.5.0/Drivers/STM32F7xx_HAL_Driver/Src/stm32f7xx_hal_flash_ex.c:797:26:FLASH_OB_EnableWRP	24	static
C:/TCCA/STM32Cube_FW_F7_V1.5.0/Drivers/STM32F7xx_HAL_Driver/Src/stm32f7xx_hal_flash_ex.c:833:26:FLASH_OB_DisableWRP	24	static
C:/TCCA/STM32Cube_FW_F7_V1.5.0/Drivers/STM32F7xx_HAL_Driver/Src/stm32f7xx_hal_flash_ex.c:864:26:FLASH_OB_RDP_LevelConfig	24	static
C:/TCCA/STM32Cube_FW_F7_V1.5.0/Drivers/STM32F7xx_HAL_Driver/Src/stm32f7xx_hal_flash_ex.c:892:26:FLASH_OB_BOR_LevelConfig	16	static
C:/TCCA/STM32Cube_FW_F7_V1.5.0/Drivers/STM32F7xx_HAL_Driver/Src/stm32f7xx_hal_flash_ex.c:923:26:FLASH_OB_BootAddressConfig	24	static
C:/TCCA/STM32Cube_FW_F7_V1.5.0/Drivers/STM32F7xx_HAL_Driver/Src/stm32f7xx_hal_flash_ex.c:956:16:FLASH_OB_GetRDP	16	static
C:/TCCA/STM32Cube_FW_F7_V1.5.0/Drivers/STM32F7xx_HAL_Driver/Src/stm32f7xx_hal_flash_ex.c:984:17:FLASH_OB_GetBOR	4	static
C:/TCCA/STM32Cube_FW_F7_V1.5.0/Drivers/STM32F7xx_HAL_Driver/Src/stm32f7xx_hal_flash_ex.c:1007:17:FLASH_OB_GetBootAddress	24	static
